<?xml version="1.0" encoding="UTF-8"?>
<svg id="svg23" width="775.08pt" height="281.22pt" version="1.1" viewBox="0 0 775.08 281.22" xmlns="http://www.w3.org/2000/svg" xmlns:cc="http://creativecommons.org/ns#" xmlns:dc="http://purl.org/dc/elements/1.1/" xmlns:rdf="http://www.w3.org/1999/02/22-rdf-syntax-ns#">
 <metadata id="metadata29">
  <rdf:RDF>
   <cc:Work rdf:about="">
    <dc:format>image/svg+xml</dc:format>
    <dc:type rdf:resource="http://purl.org/dc/dcmitype/StillImage"/>
    <dc:title/>
   </cc:Work>
  </rdf:RDF>
 </metadata>
 <path id="path2" d="m144.6 0.83922c16.92-2.21 34.69-0.19 50 7.67 14.54 7.15 26.29 20.06 31.26 35.56 5.1 16.02 4.58 33.8-1.44 49.5-5.72 15.14-17.29 28.07-31.96 35-14.72 7.07-31.59 8.22-47.6 6.24-15.49-2.01-30.87-8.34-41.8-19.77-10.55-10.61-16.27-25.32-17.48-40.08-1.59-16.99 2.13-34.98 12.66-48.68 10.92-14.63 28.51-23.15 46.36-25.44m5.92 30.94c-6.65 1.71-12.35 6.35-15.75 12.28-5.35 9.03-6.14 19.92-5.28 30.16 0.85 8.04 3.5 16.26 9.19 22.2 7.97 8.45 21.86 10.02 31.77 4.19 5.59-3.35 9.55-8.92 11.88-14.93 3.89-10.33 3.99-21.85 1.27-32.48-1.77-6.56-4.96-13.05-10.4-17.33-6.32-4.94-15.03-6.09-22.68-4.09z" fill="#0a9d4b"/>
 <path id="path4" d="m411.19 1.2292c15.6-2.32 32.1-1.37 46.71 4.97 12.19 5.27 22.16 15.19 27.86 27.16 5.87 12.47 7.59 26.58 6.69 40.23h-91.53c1.23 9.59 5.57 19.22 13.26 25.32 10.28 7.4 25.13 8.16 35.83 1.17 4.54-2.68 7.32-7.58 12.1-9.9 3.34-1.66 7.31-1.3 10.65 0.16 6.1 2.51 12.16 5.15 18.29 7.61-6.04 12.6-15.65 23.7-28.09 30.28-10.39 5.55-22.28 8.03-34.02 7.64-17.27-0.12-35.38-3.66-49.34-14.41-12.07-9.16-19.2-23.57-21.55-38.33-3.12-19.41-0.67-40.73 11.04-57.04 9.68-13.81 25.61-22.35 42.1-24.86m-4.31 32.89c-7.34 9.73-7.71 22.51-6.81 34.16 4.3-3.73 8.34-7.89 13.33-10.73 8.01-4.47 17.25-5.73 26.18-7.15 3.6-0.57 7.34-2.57 8.67-6.15 2.03-4.96-0.52-10.63-4.28-14.02-10.46-9.39-28.78-7.47-37.09 3.89z" fill="#0a9d4b"/>
 <path id="path6" d="m0 1.6192h41.385v100.48h30.635c8.06 0.25 16.72 4.075 20.34 11.655 3.29 6.39 1.23 13.635 2.16 20.465h-94.52z" fill="#0a9d4b"/>
 <path id="path8" d="m220.38 1.5892h46.45l27.66 81.34 28.24-81.34h43.54l-54.65 133h-37.41z" fill="#0a9d4b"/>
 <path id="path10" d="m146.86 155.95c19.11-6.3 38.91-11.8 59.2-11.36 11.61-0.16 23.73 0.8 34.15 6.36 12.68 6.89 21.33 20.62 21.6 35.12 0.78 30.97-0.68 62.325 1.01 93.265h-42.85c-1.04-6.11-0.87-12.405-0.97-18.595-6.91 6.59-13.49 14.48-23.07 17.09-10.66 2.96-22.31 2.81-32.81-0.75-12.64-4.37-22.01-15.7-25.5-28.41-2.52-8.19-1.22-17.14 1.99-24.94 5.42-12.76 17.8-21.25 30.75-25.1 15.73-4.46 32.41-4.5 48.51-2.31-0.7-5.62-1.81-11.83-6.42-15.66-6.44-5.51-15.51-5.77-23.55-5.52-8.12 0.18-15.78 3.39-23.84 3.92-3.94 0.3-7.86-1.68-9.92-5.04-3.62-5.59-5.64-12-8.28-18.07m51.28 66.78c-5.89 0.61-12.03 2.98-15.57 7.94-4.69 6.38-3.1 16.95 4.35 20.53 9.99 5.05 21.9 2.7 31.85-1.25v-32.79c-6.44 3.23-13.52 4.74-20.63 5.57z" fill="#0a9d4b"/>
 <path id="path4-3" d="m693.59 146.2c15.6-2.32 32.1-1.37 46.71 4.97 12.19 5.27 22.16 15.19 27.86 27.16 5.87 12.47 7.59 26.58 6.69 40.23h-91.53c1.23 9.59 5.57 19.22 13.26 25.32 10.28 7.4 25.13 8.16 35.83 1.17 4.54-2.68 7.32-7.58 12.1-9.9 3.34-1.66 7.31-1.3 10.65 0.15999 6.1 2.51 12.16 5.15 18.29 7.61-6.04 12.6-15.65 23.7-28.09 30.28-10.39 5.55-22.28 8.03-34.02 7.64-17.27-0.12-35.38-3.66-49.34-14.41-12.07-9.16-19.2-23.57-21.55-38.33-3.12-19.41-0.67-40.73 11.04-57.04 9.68-13.81 25.61-22.35 42.1-24.86m-4.31 32.89c-7.34 9.73-7.71 22.51-6.81 34.16 4.3-3.73 8.34-7.89 13.33-10.73 8.01-4.47 17.25-5.73 26.18-7.15 3.6-0.57 7.34-2.57 8.67-6.15 2.03-4.96-0.51999-10.63-4.28-14.02-10.46-9.39-28.78-7.47-37.09 3.89z" fill="#0a9d4b"/>
 <path id="path14" d="m520.76 146.61c23.74 0.12 47.5-0.33 71.23 0.27 10.66 0.33 21.89 2.88 30 10.23 12.49 11.23 15.3 31.35 6.83 45.77-3.45 6.13-8.74 11.06-14.81 14.55l38.13 61.915h-46.24l-30.02-50.085c-2.7-4.67-8.5-7-13.63-5.13v55.215h-41.49v-132.74m41.49 29.5v44.18c2.99-4.89 6.04-9.81 10.11-13.88 4.31-4.09 9.95-6.23 15.21-8.75 6.25-3.04 8.3-12.35 3.43-17.48-2.92-3.44-7.75-3.93-11.96-4.07-5.6-0.05-11.19 0.01-16.79 0z" fill="#0a9d4b"/>
 <path id="path16" d="m0.275 279.58v-133h31.685l56.56 70.155v-70.155h38.49v133h-26.79l-61.43-72.775v72.775z" fill="#0a9d4b"/>
 <path id="path18" d="m269.26 146.6h126.76c6.49 0.23 13.52 0.615 19.01 4.485 4.4 3.16 5.64 8.85 5.91 13.95 0.22 7.12-0.03 14.25 0.12 21.38-3.59-6.3-11.36-7.725-18-7.815h-54.915v99.745h-42.5v-99.745h-36.38z" fill="#0a9d4b"/>
 <path id="path20" d="m466.24 146.85h42.115v79.265c-0.04 14.24-2.485 29.88-13.315 40.1-12.629 11.845-30.617 15.179-47.473 14.997h-9.1803c-12.677-0.0896-25.472-2.6463-36.566-8.9473-9.29-5.23-16.69-13.91-19.84-24.15-3.11-9.36-2.745-19.34-2.715-29.06v-33.47h22.775c4.39 0.05 8.98 0.47 12.87 2.68 3.9 2.11 6.31 6.48 6.33 10.87-0.05 9.67 0.57 19.32 0.56 28.99 0.18 6.37 1.74 13.18 6.55 17.71 6.1 5.84 15.44 6.48 23.31 4.73 8.99-2.27 14.64-11.53 14.58-20.48z" fill="#0a9d4b"/>
</svg>
