<svg Googl="true" version="1.1" viewBox="0 0 608.33 608.33" xmlns="http://www.w3.org/2000/svg">
 <g transform="translate(-45.833 -398.2)" shape-rendering="auto">
  <g fill="#f27500">
   <path d="m197 534.38 271.73-1.5152-91.556 128.22h-104.06z" color="#000000" color-rendering="auto" image-rendering="auto" solid-color="#000000" style="isolation:auto;mix-blend-mode:normal"/>
   <path d="m537.92 670.86-149.13 230.15-53.315-162.43 144.58-202.37z" color="#000000" color-rendering="auto" image-rendering="auto" solid-color="#000000" style="isolation:auto;mix-blend-mode:normal"/>
   <path d="m378.15 906.66h-162.95l111.6-156.34" color="#000000" color-rendering="auto" image-rendering="auto" solid-color="#000000" style="isolation:auto;mix-blend-mode:normal"/>
  </g>
  <circle cx="350" cy="702.36" r="291.67" color="#000000" color-rendering="auto" fill="none" image-rendering="auto" solid-color="#000000" stroke="#f27500" stroke-linecap="round" stroke-linejoin="round" stroke-width="25" style="isolation:auto;mix-blend-mode:normal"/>
 </g>
</svg>
